"";"x"
"1";-2.06171126032913
"2";-1.15795174947974
"3";-0.777004325110618
"4";-0.413799727221232
"5";-0.332523214714803
"6";-0.245179449648062
"7";-0.21906418746538
"8";0.457017997818351
"9";1.44490111600772
"10";2.64956857151001
"11";-1.64841898651488
"12";-0.684391503507866
"13";-1.01968816219946
"14";-0.919770707910254
"15";-0.107007405342621
"16";0.262451176075035
"17";0.433338280171559
"18";0.647613022709321
"19";1.51937767635323
"20";0.950682322203516
"21";0.94211828072153
"22";0.760397366521977
"23";0.400460937016414
"24";1.03474236512142
"25";0.320263603310371
"26";0.267495884605863
"27";0.0450442514545037
"28";-0.273085396709694
"29";-0.00958467344413466
"30";-0.136895582022122
"31";0.991205855960914
"32";1.41326554094236
"33";-0.0123124624793684
"34";-0.971158753488467
"35";-1.57940955658628
"36";-1.97098714432999
